\relax 
\providecommand\HyperFirstAtBeginDocument{\AtBeginDocument}
\HyperFirstAtBeginDocument{\ifx\hyper@anchor\@undefined
\global\let\oldcontentsline\contentsline
\gdef\contentsline#1#2#3#4{\oldcontentsline{#1}{#2}{#3}}
\global\let\oldnewlabel\newlabel
\gdef\newlabel#1#2{\newlabelxx{#1}#2}
\gdef\newlabelxx#1#2#3#4#5#6{\oldnewlabel{#1}{{#2}{#3}}}
\AtEndDocument{\ifx\hyper@anchor\@undefined
\let\contentsline\oldcontentsline
\let\newlabel\oldnewlabel
\fi}
\fi}
\global\let\hyper@last\relax 
\gdef\HyperFirstAtBeginDocument#1{#1}
\providecommand\HyField@AuxAddToFields[1]{}
\@writefile{toc}{\beamer@endinputifotherversion {3.26pt}}
\@writefile{nav}{\beamer@endinputifotherversion {3.26pt}}
\select@language{english}
\@writefile{toc}{\select@language{english}}
\@writefile{lof}{\select@language{english}}
\@writefile{lot}{\select@language{english}}
\@writefile{nav}{\headcommand {\slideentry {0}{0}{1}{1/1}{}{0}}}
\@writefile{nav}{\headcommand {\beamer@framepages {1}{1}}}
\@writefile{nav}{\headcommand {\slideentry {0}{0}{2}{2/4}{}{0}}}
\@writefile{nav}{\headcommand {\beamer@framepages {2}{4}}}
\@writefile{nav}{\headcommand {\slideentry {0}{0}{3}{5/5}{}{0}}}
\@writefile{nav}{\headcommand {\beamer@framepages {5}{5}}}
\@writefile{nav}{\headcommand {\slideentry {0}{0}{4}{6/9}{}{0}}}
\@writefile{nav}{\headcommand {\beamer@framepages {6}{9}}}
\@writefile{nav}{\headcommand {\slideentry {0}{0}{5}{10/15}{}{0}}}
\@writefile{nav}{\headcommand {\beamer@framepages {10}{15}}}
\@writefile{nav}{\headcommand {\slideentry {0}{0}{6}{16/17}{}{0}}}
\@writefile{nav}{\headcommand {\beamer@framepages {16}{17}}}
\@writefile{nav}{\headcommand {\slideentry {0}{0}{7}{18/23}{}{0}}}
\@writefile{nav}{\headcommand {\beamer@framepages {18}{23}}}
\newlabel{infra}{{1}{24}{\relax }{Doc-Start}{}}
\@writefile{snm}{\beamer@slide {infra}{24}}
\@writefile{nav}{\headcommand {\slideentry {0}{0}{8}{24/24}{}{0}}}
\@writefile{nav}{\headcommand {\beamer@framepages {24}{24}}}
\@writefile{nav}{\headcommand {\slideentry {0}{0}{9}{25/29}{}{0}}}
\@writefile{nav}{\headcommand {\beamer@framepages {25}{29}}}
\newlabel{platform}{{2}{30}{\relax }{Doc-Start}{}}
\@writefile{snm}{\beamer@slide {platform}{30}}
\@writefile{nav}{\headcommand {\slideentry {0}{0}{10}{30/30}{}{0}}}
\@writefile{nav}{\headcommand {\beamer@framepages {30}{30}}}
\@writefile{nav}{\headcommand {\slideentry {0}{0}{11}{31/36}{}{0}}}
\@writefile{nav}{\headcommand {\beamer@framepages {31}{36}}}
\newlabel{software}{{3}{37}{\relax }{Doc-Start}{}}
\@writefile{snm}{\beamer@slide {software}{37}}
\@writefile{nav}{\headcommand {\slideentry {0}{0}{12}{37/37}{}{0}}}
\@writefile{nav}{\headcommand {\beamer@framepages {37}{37}}}
\@writefile{nav}{\headcommand {\slideentry {0}{0}{13}{38/43}{}{0}}}
\@writefile{nav}{\headcommand {\beamer@framepages {38}{43}}}
\newlabel{network}{{4}{44}{\relax }{Doc-Start}{}}
\@writefile{snm}{\beamer@slide {network}{44}}
\@writefile{nav}{\headcommand {\slideentry {0}{0}{14}{44/44}{}{0}}}
\@writefile{nav}{\headcommand {\beamer@framepages {44}{44}}}
\@writefile{nav}{\headcommand {\slideentry {0}{0}{15}{45/48}{}{0}}}
\@writefile{nav}{\headcommand {\beamer@framepages {45}{48}}}
\newlabel{storage}{{5}{49}{\relax }{Doc-Start}{}}
\@writefile{snm}{\beamer@slide {storage}{49}}
\@writefile{nav}{\headcommand {\slideentry {0}{0}{16}{49/49}{}{0}}}
\@writefile{nav}{\headcommand {\beamer@framepages {49}{49}}}
\@writefile{nav}{\headcommand {\slideentry {0}{0}{17}{50/52}{}{0}}}
\@writefile{nav}{\headcommand {\beamer@framepages {50}{52}}}
\newlabel{security}{{6}{53}{\relax }{Doc-Start}{}}
\@writefile{snm}{\beamer@slide {security}{53}}
\@writefile{nav}{\headcommand {\slideentry {0}{0}{18}{53/53}{}{0}}}
\@writefile{nav}{\headcommand {\beamer@framepages {53}{53}}}
\@writefile{nav}{\headcommand {\slideentry {0}{0}{19}{54/60}{}{0}}}
\@writefile{nav}{\headcommand {\beamer@framepages {54}{60}}}
\newlabel{data}{{7}{61}{\relax }{Doc-Start}{}}
\@writefile{snm}{\beamer@slide {data}{61}}
\@writefile{nav}{\headcommand {\slideentry {0}{0}{20}{61/61}{}{0}}}
\@writefile{nav}{\headcommand {\beamer@framepages {61}{61}}}
\@writefile{nav}{\headcommand {\slideentry {0}{0}{21}{62/66}{}{0}}}
\@writefile{nav}{\headcommand {\beamer@framepages {62}{66}}}
\@writefile{nav}{\headcommand {\slideentry {0}{0}{22}{67/70}{}{0}}}
\@writefile{nav}{\headcommand {\beamer@framepages {67}{70}}}
\newlabel{overflow}{{8}{71}{\relax }{Doc-Start}{}}
\@writefile{snm}{\beamer@slide {overflow}{71}}
\newlabel{overflow}{{9}{71}{\relax }{Doc-Start}{}}
\@writefile{snm}{\beamer@slide {overflow}{71}}
\@writefile{nav}{\headcommand {\slideentry {0}{0}{23}{71/71}{}{0}}}
\@writefile{nav}{\headcommand {\beamer@framepages {71}{71}}}
\@writefile{nav}{\headcommand {\slideentry {0}{0}{24}{72/72}{}{0}}}
\@writefile{nav}{\headcommand {\beamer@framepages {72}{72}}}
\@writefile{nav}{\headcommand {\slideentry {0}{0}{25}{73/81}{}{0}}}
\@writefile{nav}{\headcommand {\beamer@framepages {73}{81}}}
\@writefile{nav}{\headcommand {\slideentry {0}{0}{26}{82/87}{}{0}}}
\@writefile{nav}{\headcommand {\beamer@framepages {82}{87}}}
\newlabel{usage}{{10}{88}{\relax }{Doc-Start}{}}
\@writefile{snm}{\beamer@slide {usage}{88}}
\@writefile{nav}{\headcommand {\slideentry {0}{0}{27}{88/88}{}{0}}}
\@writefile{nav}{\headcommand {\beamer@framepages {88}{88}}}
\@writefile{nav}{\headcommand {\slideentry {0}{0}{28}{89/92}{}{0}}}
\@writefile{nav}{\headcommand {\beamer@framepages {89}{92}}}
\@writefile{nav}{\headcommand {\slideentry {0}{0}{29}{93/98}{}{0}}}
\@writefile{nav}{\headcommand {\beamer@framepages {93}{98}}}
\newlabel{market}{{11}{99}{\relax }{Doc-Start}{}}
\@writefile{snm}{\beamer@slide {market}{99}}
\@writefile{nav}{\headcommand {\slideentry {0}{0}{30}{99/99}{}{0}}}
\@writefile{nav}{\headcommand {\beamer@framepages {99}{99}}}
\newlabel{spread}{{12}{100}{\relax }{Doc-Start}{}}
\@writefile{snm}{\beamer@slide {spread}{100}}
\@writefile{nav}{\headcommand {\slideentry {0}{0}{31}{100/100}{}{0}}}
\@writefile{nav}{\headcommand {\beamer@framepages {100}{100}}}
\@writefile{nav}{\headcommand {\slideentry {0}{0}{32}{101/101}{}{0}}}
\@writefile{nav}{\headcommand {\beamer@framepages {101}{101}}}
\@writefile{nav}{\headcommand {\slideentry {0}{0}{33}{102/104}{}{0}}}
\@writefile{nav}{\headcommand {\beamer@framepages {102}{104}}}
\@writefile{nav}{\headcommand {\slideentry {0}{0}{34}{105/109}{}{0}}}
\@writefile{nav}{\headcommand {\beamer@framepages {105}{109}}}
\@writefile{nav}{\headcommand {\slideentry {0}{0}{35}{110/115}{}{0}}}
\@writefile{nav}{\headcommand {\beamer@framepages {110}{115}}}
\newlabel{etop}{{13}{116}{\relax }{Doc-Start}{}}
\@writefile{snm}{\beamer@slide {etop}{116}}
\@writefile{nav}{\headcommand {\slideentry {0}{0}{36}{116/116}{}{0}}}
\@writefile{nav}{\headcommand {\beamer@framepages {116}{116}}}
\@writefile{nav}{\headcommand {\slideentry {0}{0}{37}{117/123}{}{0}}}
\@writefile{nav}{\headcommand {\beamer@framepages {117}{123}}}
\newlabel{jmcloud}{{14}{124}{\relax }{Doc-Start}{}}
\@writefile{snm}{\beamer@slide {jmcloud}{124}}
\@writefile{nav}{\headcommand {\slideentry {0}{0}{38}{124/124}{}{0}}}
\@writefile{nav}{\headcommand {\beamer@framepages {124}{124}}}
\newlabel{schema}{{15}{125}{\relax }{Doc-Start}{}}
\@writefile{snm}{\beamer@slide {schema}{125}}
\@writefile{nav}{\headcommand {\slideentry {0}{0}{39}{125/125}{}{0}}}
\@writefile{nav}{\headcommand {\beamer@framepages {125}{125}}}
\@writefile{nav}{\headcommand {\slideentry {0}{0}{40}{126/130}{}{0}}}
\@writefile{nav}{\headcommand {\beamer@framepages {126}{130}}}
\newlabel{login}{{16}{131}{\relax }{Doc-Start}{}}
\@writefile{snm}{\beamer@slide {login}{131}}
\@writefile{nav}{\headcommand {\slideentry {0}{0}{41}{131/131}{}{0}}}
\@writefile{nav}{\headcommand {\beamer@framepages {131}{131}}}
\newlabel{app}{{17}{132}{\relax }{Doc-Start}{}}
\@writefile{snm}{\beamer@slide {app}{132}}
\@writefile{nav}{\headcommand {\slideentry {0}{0}{42}{132/132}{}{0}}}
\@writefile{nav}{\headcommand {\beamer@framepages {132}{132}}}
\@writefile{nav}{\headcommand {\slideentry {0}{0}{43}{133/137}{}{0}}}
\@writefile{nav}{\headcommand {\beamer@framepages {133}{137}}}
\@writefile{nav}{\headcommand {\slideentry {0}{0}{44}{138/138}{}{0}}}
\@writefile{nav}{\headcommand {\beamer@framepages {138}{138}}}
\@writefile{nav}{\headcommand {\beamer@partpages {1}{138}}}
\@writefile{nav}{\headcommand {\beamer@subsectionpages {1}{138}}}
\@writefile{nav}{\headcommand {\beamer@sectionpages {1}{138}}}
\@writefile{nav}{\headcommand {\beamer@documentpages {138}}}
\@writefile{nav}{\headcommand {\def \inserttotalframenumber {44}}}
