\relax 
\providecommand\hyper@newdestlabel[2]{}
\providecommand\HyperFirstAtBeginDocument{\AtBeginDocument}
\HyperFirstAtBeginDocument{\ifx\hyper@anchor\@undefined
\global\let\oldcontentsline\contentsline
\gdef\contentsline#1#2#3#4{\oldcontentsline{#1}{#2}{#3}}
\global\let\oldnewlabel\newlabel
\gdef\newlabel#1#2{\newlabelxx{#1}#2}
\gdef\newlabelxx#1#2#3#4#5#6{\oldnewlabel{#1}{{#2}{#3}}}
\AtEndDocument{\ifx\hyper@anchor\@undefined
\let\contentsline\oldcontentsline
\let\newlabel\oldnewlabel
\fi}
\fi}
\global\let\hyper@last\relax 
\gdef\HyperFirstAtBeginDocument#1{#1}
\providecommand\HyField@AuxAddToFields[1]{}
\providecommand\HyField@AuxAddToCoFields[2]{}
\catcode`"\active
\@writefile{toc}{\beamer@endinputifotherversion {3.26pt}}
\@writefile{nav}{\beamer@endinputifotherversion {3.26pt}}
\select@language{italian}
\@writefile{toc}{\select@language{italian}}
\@writefile{lof}{\select@language{italian}}
\@writefile{lot}{\select@language{italian}}
\@writefile{nav}{\headcommand {\slideentry {0}{0}{1}{1/1}{}{0}}}
\@writefile{nav}{\headcommand {\beamer@framepages {1}{1}}}
\@writefile{nav}{\headcommand {\slideentry {0}{0}{2}{2/7}{}{0}}}
\@writefile{nav}{\headcommand {\beamer@framepages {2}{7}}}
\@writefile{nav}{\headcommand {\slideentry {0}{0}{3}{8/10}{}{0}}}
\@writefile{nav}{\headcommand {\beamer@framepages {8}{10}}}
\@writefile{nav}{\headcommand {\slideentry {0}{0}{4}{11/13}{}{0}}}
\@writefile{nav}{\headcommand {\beamer@framepages {11}{13}}}
\@writefile{nav}{\headcommand {\slideentry {0}{0}{5}{14/16}{}{0}}}
\@writefile{nav}{\headcommand {\beamer@framepages {14}{16}}}
\@writefile{nav}{\headcommand {\slideentry {0}{0}{6}{17/19}{}{0}}}
\@writefile{nav}{\headcommand {\beamer@framepages {17}{19}}}
\@writefile{nav}{\headcommand {\slideentry {0}{0}{7}{20/22}{}{0}}}
\@writefile{nav}{\headcommand {\beamer@framepages {20}{22}}}
\@writefile{nav}{\headcommand {\slideentry {0}{0}{8}{23/25}{}{0}}}
\@writefile{nav}{\headcommand {\beamer@framepages {23}{25}}}
\@writefile{nav}{\headcommand {\slideentry {0}{0}{9}{26/26}{}{0}}}
\@writefile{nav}{\headcommand {\beamer@framepages {26}{26}}}
\@writefile{nav}{\headcommand {\beamer@partpages {1}{26}}}
\@writefile{nav}{\headcommand {\beamer@subsectionpages {1}{26}}}
\@writefile{nav}{\headcommand {\beamer@sectionpages {1}{26}}}
\@writefile{nav}{\headcommand {\beamer@documentpages {26}}}
\@writefile{nav}{\headcommand {\def \inserttotalframenumber {9}}}
